[
  {
    "ApiId": "/providers/microsoft.powerapps/apis/shared_logicflows",
    "FlowNameId": "4bf0e397-47d2-467f-a783-2bfb833e2ec9",
    "Name": "5[HRMRecruitment]Vendorgửimailchophápchếkhikhônggiahạnvàtiếptucgiahạn",
    "ServiceKind": "ConnectedWadl",
    "Type": "ServiceInfo",
    "WorkflowEntityId": "71ef40fb-229e-ee11-be37-6045bd5883b1"
  }
]