[
  {
    "ApiId": "/providers/microsoft.powerapps/apis/shared_logicflows",
    "FlowNameId": "1852541b-f555-4f0e-96e0-68a4baf13268",
    "Name": "6[HRMRecruitment]GửimailCEOxácnhậnoffer",
    "ServiceKind": "ConnectedWadl",
    "Type": "ServiceInfo",
    "WorkflowEntityId": "6fef40fb-229e-ee11-be37-6045bd5883b1"
  }
]