[
  {
    "ApiId": "/providers/microsoft.powerapps/apis/shared_logicflows",
    "FlowNameId": "b33ed5b3-066a-483d-9944-292b479bfbef",
    "Name": "9[HRMRecruitment]GửimailHMvàTAkhiCEOxácnhậnoffer",
    "ServiceKind": "ConnectedWadl",
    "Type": "ServiceInfo",
    "WorkflowEntityId": null
  }
]