[
  {
    "ApiId": "/providers/microsoft.powerapps/apis/shared_sharepointonline",
    "CdpRevision": {
      "BaseUrl": "/",
      "LastChangedTimeString": "2024-06-06T16:31:04.7190000Z",
      "RevisionNumber": 1
    },
    "ConnectedDataSourceInfoNameMapping": {
      "{Attachments}": "Attachments",
      "{Attachments}@odata.type": "{Attachments} ({Attachments}@odata.type)",
      "{FilenameWithExtension}": "File name with extension",
      "{FullPath}": "Full Path",
      "{HasAttachments}": "Has attachments",
      "{Identifier}": "Identifier",
      "{IsFolder}": "IsFolder",
      "{Link}": "Link to item",
      "{ModerationComment}": "Comments associated with the content approval of this list item",
      "{ModerationStatus}": "Content approval status",
      "{Name}": "Name",
      "{Path}": "Folder path",
      "{Thumbnail}": "Hình thu nhỏ",
      "{TriggerWindowEndToken}": "Trigger Window End Token",
      "{TriggerWindowStartToken}": "Trigger Window Start Token",
      "{VersionNumber}": "Version number",
      "Author": "Created By",
      "Author#Claims": "Created By Claims",
      "ComplianceAssetId": "Compliance Asset Id",
      "Created": "Created",
      "Editor": "Modified By",
      "Editor#Claims": "Modified By Claims",
      "ID": "ID",
      "level": "Level",
      "level#Id": "Level Id",
      "ly_do_tuyen": "Reason for hiring",
      "ly_do_tuyen#Id": "Reason for hiring Id",
      "ma_du_an": "Project code",
      "ma_du_an#Id": "Project code Id",
      "ma_ke_hoach": "Plan code",
      "ma_ke_hoach#Id": "Plan code Id",
      "Modified": "Modified",
      "OData__ColorTag": "Color Tag",
      "so_luong": "Quantity",
      "ten_vi_tri": "Position",
      "ten_vi_tri#Id": "Position Id",
      "thay_the_cho": "Replacement for",
      "thay_the_cho#Claims": "Replacement for Claims",
      "Title": "Title"
    },
    "DatasetName": "https://edsolabs.sharepoint.com/sites/sndhrdev",
    "EncodeDataset": true,
    "IsSampleData": false,
    "IsWritable": true,
    "Name": "Chi tiết kế hoạch tuyển dụng",
    "Type": "ConnectedDataSourceInfo"
  }
]