[
  {
    "ApiId": "/providers/microsoft.powerapps/apis/shared_sharepointonline",
    "CdpRevision": {
      "BaseUrl": "/",
      "LastChangedTimeString": "2024-06-06T16:31:04.7190000Z",
      "RevisionNumber": 1
    },
    "ConnectedDataSourceInfoNameMapping": {
      "{Attachments}": "Attachments",
      "{Attachments}@odata.type": "{Attachments} ({Attachments}@odata.type)",
      "{FilenameWithExtension}": "File name with extension",
      "{FullPath}": "Full Path",
      "{HasAttachments}": "Has attachments",
      "{Identifier}": "Identifier",
      "{IsFolder}": "IsFolder",
      "{Link}": "Link to item",
      "{ModerationComment}": "Comments associated with the content approval of this list item",
      "{ModerationStatus}": "Content approval status",
      "{Name}": "Name",
      "{Path}": "Folder path",
      "{Thumbnail}": "Hình thu nhỏ",
      "{TriggerWindowEndToken}": "Trigger Window End Token",
      "{TriggerWindowStartToken}": "Trigger Window Start Token",
      "{VersionNumber}": "Version number",
      "Author": "Created By",
      "Author#Claims": "Created By Claims",
      "bo_phan_pb": "Department",
      "bo_phan_pb#Id": "Department Id",
      "ComplianceAssetId": "Compliance Asset Id",
      "Created": "Created",
      "Editor": "Modified By",
      "Editor#Claims": "Modified By Claims",
      "ho_va_ten": "Full name",
      "ID": "ID",
      "lich_su_phe_duyet": "Approval history",
      "ly_do_tu_choi": "Reason for rejection",
      "ma_ke_hoach": "Plan code",
      "ma_nhan_vien": "Employee code",
      "Modified": "Modified",
      "OData__ColorTag": "Color Tag",
      "ten_ke_hoach": "Plan name",
      "Title": "Title",
      "tong": "Total",
      "trang_thai": "Status",
      "trang_thai#Id": "Status Id",
      "workflow_id": "workflow_id"
    },
    "DatasetName": "https://edsolabs.sharepoint.com/sites/sndhrdev",
    "EncodeDataset": true,
    "IsSampleData": false,
    "IsWritable": true,
    "Name": "Kế hoạch tuyển dụng",
    "Type": "ConnectedDataSourceInfo"
  }
]