[
  {
    "ApiId": "/providers/microsoft.powerapps/apis/shared_sharepointonline",
    "CdpRevision": {
      "BaseUrl": "/",
      "LastChangedTimeString": "2024-06-06T16:31:04.7190000Z",
      "RevisionNumber": 1
    },
    "ConnectedDataSourceInfoNameMapping": {
      "{Attachments}": "Attachments",
      "{Attachments}@odata.type": "{Attachments} ({Attachments}@odata.type)",
      "{FilenameWithExtension}": "File name with extension",
      "{FullPath}": "Full Path",
      "{HasAttachments}": "Has attachments",
      "{Identifier}": "Identifier",
      "{IsFolder}": "IsFolder",
      "{Link}": "Link to item",
      "{ModerationComment}": "Comments associated with the content approval of this list item",
      "{ModerationStatus}": "Content approval status",
      "{Name}": "Name",
      "{Path}": "Folder path",
      "{Thumbnail}": "Hình thu nhỏ",
      "{TriggerWindowEndToken}": "Trigger Window End Token",
      "{TriggerWindowStartToken}": "Trigger Window Start Token",
      "{VersionNumber}": "Version number",
      "Author": "Created By",
      "Author#Claims": "Created By Claims",
      "bao_cao_cho": "Báo cáo cho",
      "bieu_mau_cho_ngoi_may_moc": "Biểu mẫu chỗ ngồi và máy móc",
      "bieu_mau_ke_hoach_thu_viec": "Biểu mẫu kế hoạch thử việc",
      "bo_phan": "Bộ phận",
      "cap_nhat_thong_tin_vao_danh_sach": "Cập nhật thông tin vào danh sách nhân viên",
      "catch_up_trai_nghiem_va_cong_vie": "Catch up trải nghiệm và công việc của nhân viên",
      "checklist_onboard_cho_pm": "Checklist onboard cho PM",
      "ComplianceAssetId": "Compliance Asset Id",
      "Created": "Created",
      "dan_tour_tham_quan_van_phong": "Dẫn tour tham quan văn phòng",
      "dia_diem_danh_gia_6_thang_truc_t": "Địa điểm đánh giá 6 tháng trực tiếp",
      "dia_diem_danh_gia_thu_viec_truc_": "Địa điểm đánh giá thử việc trực tiếp",
      "dia_diem_hop_ceo_meeting": "Địa điểm họp CEO meeting",
      "Editor": "Modified By",
      "Editor#Claims": "Modified By Claims",
      "email_ca_nhan": "Email cá nhân",
      "gui_bieu_mau_dien_thong_tin_cho_": "Gửi biểu mẫu điền thông tin cho PM",
      "gui_bieu_mau_dien_thong_tin_nhan": "Gửi biểu mẫu điền thông tin nhân viên",
      "gui_form_danh_gia_6_thang_va_sur": "Gửi form đánh giá 6 tháng và survey",
      "gui_form_danh_gia_thu_viec_va_su": "Gửi form đánh giá thử việc và survey",
      "gui_mail_chuc_mung": "Gửi mail chúc mừng",
      "gui_mail_welcome_onboard": "Gửi mail welcome onboard",
      "gui_thong_bao_va_link_dang_ky_x0": "Gửi thông báo và link đăng ký meeting",
      "hcns": "HCNS",
      "hcns#Claims": "HCNS Claims",
      "hcns@odata.type": "hcns (hcns@odata.type)",
      "huong_dan_su_dung_jira": "Hướng dẫn sử dụng Jira",
      "ID": "ID",
      "it_support_duyet_cap_may": "IT support duyệt cấp máy",
      "ket_qua_danh_gia_thu_viec": "Kết quả đánh giá thử việc",
      "ket_qua_danh_gia_thu_viec#Id": "Kết quả đánh giá thử việc Id",
      "ky_vong_va_muc_tieu_nhan_vien": "Kỳ vọng và mục tiêu nhân viên",
      "lam_hop_dong_thu_viec": "Làm hợp đồng thử việc",
      "level": "Level",
      "may_moc_cho_ngoi_email": "Máy móc chỗ ngồi email",
      "Modified": "Modified",
      "muc_luong_chinh_thuc": "Mức lương chính thức",
      "muc_luong_thu_viec": "Mức lương thử việc",
      "Ng_x00e0_y_x0020_g_x1eed_i_x0020": "Ngày gửi biểu mẫu điền thông tin cho PM",
      "ngay_chuyen_form_danh_gia_6_than": "Ngày chuyển form đánh giá 6 tháng tới PM",
      "ngay_chuyen_form_thu_viec_toi_pm": "Ngày chuyển form đánh giá thử việc tới PM",
      "ngay_danh_gia_6_thang_truc_tiep": "Ngày đánh giá 6 tháng trực tiếp",
      "ngay_danh_gia_thu_viec_truc_tiep": "Ngày đánh giá thử việc trực tiếp",
      "ngay_gui_bieu_mau_dien_thong_tin": "Ngày gửi biểu mẫu điền thông tin nhân viên",
      "ngay_gui_form_danh_gia_6_thang_v": "Ngày gửi form đánh giá 6 tháng và survey",
      "ngay_gui_form_danh_gia_thu_viec_": "Ngày gửi form đánh giá thử việc và survey",
      "ngay_gui_mail_chuc_mung": "Ngày gửi mail chúc mừng",
      "ngay_gui_offer": "Ngày gửi offer",
      "ngay_hop_ceo_meeting": "Ngày họp CEO meeting",
      "ngay_ket_thuc_onboard": "Ngày kết thúc onboard",
      "ngay_len_chinh_thuc": "Ngày lên chính thức",
      "ngay_onboard": "Ngày onboard",
      "ngay_pm_submit_ban_danh_gia_thu_": "Ngày PM submit bản đánh giá thử việc",
      "ngay_update_ket_qua_danh_gia": "Ngày update kết quả đánh giá",
      "nhan_vien_submit_form_danh_gia_6": "Nhân viên submit form đánh giá 6 tháng",
      "nhan_vien_submit_form_thu_viec": "Nhân viên submit form thử việc",
      "nhung_nguoi_lien_quan": "Những người liên quan",
      "nhung_nguoi_lien_quan#Claims": "Những người liên quan Claims",
      "nhung_nguoi_lien_quan@odata.type": "nhung_nguoi_lien_quan (nhung_nguoi_lien_quan@odata.type)",
      "note": "Note",
      "OData__ColorTag": "Color Tag",
      "OData__x0025__luong_thu_viec": "% lương thử việc",
      "pm": "PM",
      "pm#Claims": "PM Claims",
      "sap_xep_di_an_cung_nhan_vien": "Sắp xếp đi ăn cùng nhân viên",
      "sap_xep_lich_danh_gia_6_thang_tr": "Sắp xếp lịch đánh giá 6 tháng trực tiếp",
      "sap_xep_lich_danh_gia_thu_viec_t": "Hoàn thành lịch sắp xếp đánh giá trực tiếp",
      "sap_xep_lich_voi_ceo": "Hoàn thành lịch CEO meeting",
      "soan_hop_dong_moi": "Soạn hợp đồng mới",
      "ten_nhan_vien": "Tên nhân viên",
      "thang": "Tháng",
      "thoi_gian_danh_gia_6_thang_truc_": "Thời gian đánh giá 6 tháng trực tiếp",
      "thoi_gian_danh_gia_thu_viec_truc": "Thời gian đánh giá thử việc trực tiếp",
      "thoi_gian_hop_ceo_meeting": "Thời gian họp CEO meeting",
      "thoi_gian_thu_viec": "Thời gian thử việc",
      "tiep_don_nhan_vien_va_gioi_thieu": "Tiếp đón nhân viên và giới thiệu với team",
      "Title": "Mã nhân viên",
      "to_chuc_buoi_dao_tao_gioi_thieu_": "Tổ chức buổi đào tạo giới thiệu về công ty",
      "trao_doi_ve_cong_viec_thu_viec_v": "Trao đổi về công việc thử việc và nguyên tắc làm việc",
      "trao_doi_ve_ky_vong_va_muc_tieu_": "Trao đổi về kỳ vọng và mục tiêu 2 tháng thử việc",
      "ve_xe": "Vé xe",
      "vi_tri": "Vị trí"
    },
    "DatasetName": "https://edsolabs.sharepoint.com/sites/sndhrdev",
    "EncodeDataset": true,
    "IsSampleData": false,
    "IsWritable": true,
    "Name": "OnBoarding_V2",
    "Type": "ConnectedDataSourceInfo"
  }
]