[
  {
    "ApiId": "/providers/microsoft.powerapps/apis/shared_sharepointonline",
    "CdpRevision": {
      "BaseUrl": "/",
      "LastChangedTimeString": "2024-06-06T16:31:04.7190000Z",
      "RevisionNumber": 1
    },
    "ConnectedDataSourceInfoNameMapping": {
      "{Attachments}": "Attachments",
      "{Attachments}@odata.type": "{Attachments} ({Attachments}@odata.type)",
      "{FilenameWithExtension}": "File name with extension",
      "{FullPath}": "Full Path",
      "{HasAttachments}": "Has attachments",
      "{Identifier}": "Identifier",
      "{IsFolder}": "IsFolder",
      "{Link}": "Link to item",
      "{ModerationComment}": "Comments associated with the content approval of this list item",
      "{ModerationStatus}": "Content approval status",
      "{Name}": "Name",
      "{Path}": "Folder path",
      "{Thumbnail}": "Hình thu nhỏ",
      "{TriggerWindowEndToken}": "Trigger Window End Token",
      "{TriggerWindowStartToken}": "Trigger Window Start Token",
      "{VersionNumber}": "Version number",
      "Author": "Created By",
      "Author#Claims": "Created By Claims",
      "bo_phan": "Department",
      "budget": "Budget",
      "ComplianceAssetId": "Compliance Asset Id",
      "Created": "Created",
      "Editor": "Modified By",
      "Editor#Claims": "Modified By Claims",
      "ho_va_ten": "Full name",
      "ID": "ID",
      "level": "Level",
      "level#Id": "Level Id",
      "lich_su_phe_duyet": "Approval history",
      "link_file_danh_gia": "Link to review file",
      "loai_yeu_cau": "Request type",
      "loai_yeu_cau#Id": "Request type Id",
      "ly_do_ceo_tu_choi_yctd": "Reason for CEO's rejection of recruitment request",
      "ma_du_an": "Project code",
      "ma_du_an#Id": "Project code Id",
      "ma_ke_hoach": "Plan code",
      "ma_ke_hoach#Id": "Plan code Id",
      "ma_nhan_vien": "Employee code",
      "mo_ta_cong_viec_yeu_cau": "Note",
      "Modified": "Modified",
      "muc_dich": "Purpose",
      "muc_dich#Id": "Purpose Id",
      "muc_do_uu_tien": "Priority level",
      "muc_do_uu_tien#Id": "Priority level Id",
      "ngay_gui_yeu_cau": "Date of request submission",
      "OData__ColorTag": "Color Tag",
      "quan_ly_truc_tiep": "Direct manager",
      "quan_ly_truc_tiep#Claims": "Direct manager Claims",
      "so_luong": "Quantity",
      "so_vong_phong_van": "Number of interview rounds",
      "ta_phu_trach": "Responsible TA",
      "ta_phu_trach#Claims": "Responsible TA Claims",
      "ta_phu_trach@odata.type": "ta_phu_trach (ta_phu_trach@odata.type)",
      "ten_ke_hoach": "Plan name",
      "ten_vi_tri": "Position",
      "ten_vi_tri#Id": "Position Id",
      "thay_the_cho": "Replacement for",
      "thay_the_cho#Claims": "Replacement for Claims",
      "thay_the_cho@odata.type": "thay_the_cho (thay_the_cho@odata.type)",
      "thoi_gian_du_kien": "Estimated time",
      "Title": "Title",
      "trang_thai": "Status",
      "trang_thai#Id": "Status Id",
      "trang_thai_joblist": "Status Job List",
      "trang_thai_joblist#Id": "Status Job List Id",
      "workflow_id": "workflow_id"
    },
    "DatasetName": "https://edsolabs.sharepoint.com/sites/sndhrdev",
    "EncodeDataset": true,
    "IsSampleData": false,
    "IsWritable": true,
    "Name": "Yêu cầu tuyển dụng",
    "Type": "ConnectedDataSourceInfo"
  }
]