{
  "ClientPerFileChecksums": {
    ".gitignore": "C8_VaC8EcEG56Ufcy1DFyC8Ky19iV9xSsXMDIAcmF2GTj8=",
    "AppCheckerResult.sarif": "C8_LfWI6axbEDSN1KI6hMcItEb2VjaJ834nH01nA2GFNlo=",
    "AppTests\\2.json": "C8_nsyXMIKNOM4VZRT+UziH24ETzqJiKmPBW/0axT7+8qQ=",
    "Assets\\Images\\0001.png": "C8_tJi3knYpH62/wWJ2R5htDZ2LwsTi2F9oqrfa8cLlviw=",
    "Assets\\Images\\0002.png": "C8_e0VMip/Rphr1FDEK7utp0OlAeJe8BwpHKOq5pvcu8O4=",
    "Assets\\Images\\0003.png": "C8_EgdGUxMoYEaOq0SjxnSF+YJffqOuoIOzA3u96iTv6Cs=",
    "Assets\\Images\\0004.png": "C8_zeB1tMqf+Iz5CZh3h+Cu3uAr9ehQAMjfBmzFslGTfEU=",
    "Assets\\Images\\0005.png": "C8_RwEae8xHzW51ba7QJ5pUJUliUbluiua5aBnDK3DdlNE=",
    "Assets\\Images\\0006.png": "C8_gKGs4EASTT9uGU/FocqhglVBmyIS673pR5ggQFoFQVc=",
    "Assets\\Images\\0007.png": "C8_yC5uIJFC4s1QB7209DmUph1RfUTUUZ11QnBib+5lrt4=",
    "Assets\\Images\\0008.png": "C8_WKGwrd5f2Rpevp/VtZp2CfTzSl6Ge1VSHCBz9OOYBfk=",
    "Assets\\Images\\0009.png": "C8_SZvo1XLvitTZ3+10xy5jAfKNscHXl/u0D4b3+4Caldw=",
    "Assets\\Images\\0010.png": "C8_KXWaAl/hHHHG32SPVyo8ltXMA6Hsqjhd1ige05Dghu0=",
    "Assets\\Images\\0011.png": "C8_R+d4GZjkMKDTun76I6avOL2zoLMVqFGHj9uurljyw4g=",
    "Components\\4.json": "C8_sYZ4gnORCIEIaNYk5tJpbK45d+Zd9sS13lub6g/yPzk=",
    "ComponentsMetadata.json": "C8_EURDklG6LVvmkqddTDLQPQgVqVD62OKEHi6NSBadZp4=",
    "Controls\\1.json": "C8_jBI68bMK8wpE7ZghOFO9cJ072JDw5g8OfIVi1tf7PRY=",
    "Controls\\13.json": "C8_TPaMu7jZLm7y/Xwoiz8rtRdaP9ATCqDMZIY87R8SSeA=",
    "Controls\\134.json": "C8_p+byYPCr7Oydgyv3eOly4qV1WrKeCrg97QGfHuU1F30=",
    "Controls\\144.json": "C8_uZtTwi4f5oL2syVQ1ERnGyp6+w283GNYoCStwh1xaEU=",
    "Header.json": "C8_mkPW9JVV7ygvOaAdYbY8fCi0IlJFmShh+Ulp6u0/BOE=",
    "Properties.json": "C8_4iHcHK+RO7AAmdU83yC1Ou2bQGJoezTQc9tn6uPftMU=",
    "References\\DataSources.json": "C8_OauwmIEregh9HzfgC1AolfR13XOSi+/n5Krq5P7pvIE=",
    "References\\ModernThemes.json": "C8_KDQJ/3t27vgKx25iCQB/PGqxkWE34ZB7Eyb+RxNxY0k=",
    "References\\Resources.json": "C8_IGy4RYyi4xV+ehfN3cWvbu4SWrmict1ahTPDGRvAGrY=",
    "References\\Templates.json": "C8_OoiuoIJqtdA5kZzofWG2TAYkdQ8cAkXWtD/X/0LD2Fo=",
    "References\\Themes.json": "C8_zuMgLpz3IJQlVgGqo3GtyhriL3PR35GxXf+rtPR4Gfc=",
    "Resources\\pr5wf4lx.jpg": "C8_L5AE3tc5kbO09MrBlFKN8KYeVd1E+8kF8VUVZR4vjnk=",
    "Resources\\PublishInfo.json": "C8_MjHW3Ze8uSH5gbW3/K8uUphrOaKlzzAy5oLnQHSBZlk="
  },
  "ClientStampedChecksum": "C8_KDYxvpm+NHyzc4Hh93ZUBXx60/RbAGo2usMVxd+tjIk=",
  "ServerPerFileChecksums": {
    ".gitignore": "C8_VaC8EcEG56Ufcy1DFyC8Ky19iV9xSsXMDIAcmF2GTj8=",
    "AppCheckerResult.sarif": "C8_LfWI6axbEDSN1KI6hMcItEb2VjaJ834nH01nA2GFNlo=",
    "AppTests\\2.json": "C8_nsyXMIKNOM4VZRT+UziH24ETzqJiKmPBW/0axT7+8qQ=",
    "Assets\\Images\\0001.png": "C8_tJi3knYpH62/wWJ2R5htDZ2LwsTi2F9oqrfa8cLlviw=",
    "Assets\\Images\\0002.png": "C8_e0VMip/Rphr1FDEK7utp0OlAeJe8BwpHKOq5pvcu8O4=",
    "Assets\\Images\\0003.png": "C8_EgdGUxMoYEaOq0SjxnSF+YJffqOuoIOzA3u96iTv6Cs=",
    "Assets\\Images\\0004.png": "C8_zeB1tMqf+Iz5CZh3h+Cu3uAr9ehQAMjfBmzFslGTfEU=",
    "Assets\\Images\\0005.png": "C8_RwEae8xHzW51ba7QJ5pUJUliUbluiua5aBnDK3DdlNE=",
    "Assets\\Images\\0006.png": "C8_gKGs4EASTT9uGU/FocqhglVBmyIS673pR5ggQFoFQVc=",
    "Assets\\Images\\0007.png": "C8_yC5uIJFC4s1QB7209DmUph1RfUTUUZ11QnBib+5lrt4=",
    "Assets\\Images\\0008.png": "C8_WKGwrd5f2Rpevp/VtZp2CfTzSl6Ge1VSHCBz9OOYBfk=",
    "Assets\\Images\\0009.png": "C8_SZvo1XLvitTZ3+10xy5jAfKNscHXl/u0D4b3+4Caldw=",
    "Assets\\Images\\0010.png": "C8_KXWaAl/hHHHG32SPVyo8ltXMA6Hsqjhd1ige05Dghu0=",
    "Assets\\Images\\0011.png": "C8_R+d4GZjkMKDTun76I6avOL2zoLMVqFGHj9uurljyw4g=",
    "Components\\4.json": "C8_sYZ4gnORCIEIaNYk5tJpbK45d+Zd9sS13lub6g/yPzk=",
    "ComponentsMetadata.json": "C8_EURDklG6LVvmkqddTDLQPQgVqVD62OKEHi6NSBadZp4=",
    "Controls\\1.json": "C8_jBI68bMK8wpE7ZghOFO9cJ072JDw5g8OfIVi1tf7PRY=",
    "Controls\\13.json": "C8_TPaMu7jZLm7y/Xwoiz8rtRdaP9ATCqDMZIY87R8SSeA=",
    "Controls\\134.json": "C8_p+byYPCr7Oydgyv3eOly4qV1WrKeCrg97QGfHuU1F30=",
    "Controls\\144.json": "C8_uZtTwi4f5oL2syVQ1ERnGyp6+w283GNYoCStwh1xaEU=",
    "Header.json": "C8_mkPW9JVV7ygvOaAdYbY8fCi0IlJFmShh+Ulp6u0/BOE=",
    "Properties.json": "C8_4iHcHK+RO7AAmdU83yC1Ou2bQGJoezTQc9tn6uPftMU=",
    "References\\DataSources.json": "C8_OauwmIEregh9HzfgC1AolfR13XOSi+/n5Krq5P7pvIE=",
    "References\\ModernThemes.json": "C8_KDQJ/3t27vgKx25iCQB/PGqxkWE34ZB7Eyb+RxNxY0k=",
    "References\\Resources.json": "C8_IGy4RYyi4xV+ehfN3cWvbu4SWrmict1ahTPDGRvAGrY=",
    "References\\Templates.json": "C8_OoiuoIJqtdA5kZzofWG2TAYkdQ8cAkXWtD/X/0LD2Fo=",
    "References\\Themes.json": "C8_zuMgLpz3IJQlVgGqo3GtyhriL3PR35GxXf+rtPR4Gfc=",
    "Resources\\pr5wf4lx.jpg": "C8_L5AE3tc5kbO09MrBlFKN8KYeVd1E+8kF8VUVZR4vjnk=",
    "Resources\\PublishInfo.json": "C8_MjHW3Ze8uSH5gbW3/K8uUphrOaKlzzAy5oLnQHSBZlk="
  },
  "ServerStampedChecksum": "C8_KDYxvpm+NHyzc4Hh93ZUBXx60/RbAGo2usMVxd+tjIk="
}